<?xml version="1.0" encoding="utf-8"?>
<!-- Generator: Adobe Illustrator 21.1.0, SVG Export Plug-In . SVG Version: 6.00 Build 0)  -->
<svg version="1.1" id="Layer_1" xmlns="http://www.w3.org/2000/svg" xmlns:xlink="http://www.w3.org/1999/xlink" x="0px" y="0px"
	 width="1252.8px" height="1252.8px" viewBox="0 0 1252.8 1252.8" style="enable-background:new 0 0 1252.8 1252.8;"
	 xml:space="preserve">
<style type="text/css">
	.Arched_x0020_Green{fill:url(#SVGID_1_);stroke:#FFFFFF;stroke-width:0.25;stroke-miterlimit:1;}
</style>
<linearGradient id="SVGID_1_" gradientUnits="userSpaceOnUse" x1="38.4381" y1="1458.5031" x2="39.1452" y2="1457.7959">
	<stop  offset="0" style="stop-color:#1EAB4B"/>
	<stop  offset="0.9831" style="stop-color:#19361A"/>
</linearGradient>
<g>
	<rect x="615.1" y="282.5" width="29.8" height="623.5"/>
	<path d="M475.7,767.6c14-3,26.7-8.1,37.8-15.2c11.1-7.2,20.1-16.8,26.8-28.7c6.7-11.9,10.1-26.9,10.1-44.6
		c0-13.3-2.5-25.3-7.4-35.6c-4.9-10.3-11.5-19-19.7-25.9c-8.1-6.8-17.5-12-28-15.5c-6.9-2.3-14-3.9-21.1-4.6
		c13.8-4.1,25.7-11.4,35.6-21.7c12.4-12.9,18.6-30.8,18.6-53c0-17.4-3.9-32.2-11.5-44c-7.6-11.8-17.9-20.8-30.6-26.9
		c-9.5-4.4-19.5-7.3-29.7-8.6c-10.2-1.2-23.4-1.9-39.1-1.9H301.7v33.4H339l-1.8,264h-35.5v33.4h130.9
		C447.3,772.1,461.8,770.6,475.7,767.6z M477.8,557.7c-4.6,7.3-10.7,13-18.1,17c-7.5,4.1-16.2,6.9-25.9,8.4
		c-9.7,1.5-19.8,2.3-29.9,2.3h-21.2l0.9-110.9h37.5c5.2,0,11.6,0.3,19.1,0.9c7.3,0.6,14.3,2.6,20.9,5.9c6.5,3.2,12.1,8.6,16.6,15.9
		c4.6,7.3,6.9,17.8,6.9,31.4C484.7,540.7,482.4,550.5,477.8,557.7z M495.8,647.7c5,7.9,7.6,18.5,7.6,31.4c0,14.7-3,26.3-8.9,34.3
		c-6,8.1-13.6,14.1-22.6,17.8c-9.2,3.8-19.4,6-30.3,6.6c-11,0.6-21.6,0.9-31.5,0.9h-28.2l0.9-119.7h37.1c9.5,0,19.3,0.7,29.3,2.1
		c9.8,1.4,18.9,4.2,27,8.4C484.1,633.6,490.8,639.8,495.8,647.7z"/>
	<path d="M717.8,764.5c9.6,9.6,21.2,14.4,34.9,14.4c7.8,0,16.5-2.1,26.1-6.2c9.6-4.1,19.1-9.7,28.7-16.7c9.6-7,18.9-15.4,28.1-25.2
		c9.2-9.8,17.5-20.5,24.9-32.2c6.6,2.3,13.9,3.8,21.7,4.4c7.8,0.6,15.6-0.2,23.4-2.3c7.8-2.1,15.5-5.9,23.1-11.1
		c7.6-5.3,14.7-12.4,21.4-21.4c4.7-6.2,6.9-11.6,6.7-16.1c-0.2-4.5-1.8-7.5-4.7-9.1c-2.9-1.6-6.8-1.4-11.4,0.6
		c-4.7,2-9,6.1-12.9,12.3c-5.5,9-13.1,14.3-22.9,15.8c-9.8,1.6-18.8,1-27-1.8c14.1-22.7,20-40.5,17.9-53.6
		c-2.1-13.1-8.7-21.8-19.6-26.1c-3.9-1.6-8.4-2-13.5-1.2c-5.1,0.8-10.2,2.6-15.2,5.6c-5.1,2.9-10,6.9-14.6,12
		c-4.7,5.1-8.6,11.1-11.7,18.2c-5.5,11.7-7,23.1-4.4,34c2.5,10.9,8.3,19.5,17.3,25.8c-2.3,4.7-5.5,9.6-9.4,14.6
		c-3.9,5.1-8.3,9.6-13.2,13.5c-4.9,3.9-10.2,6.8-15.8,8.8c-5.7,2-11.4,2-17.3,0c-5.5-1.6-9.4-5.4-11.7-11.4
		c-2.3-6.1-3.2-13.5-2.6-22.3c0.6-8.8,2.5-18.7,5.9-29.6c3.3-10.9,7.7-21.9,13.2-32.8c7.8-5.9,16.4-12.2,25.8-19
		c9.4-6.8,18.8-14,28.4-21.4c9.6-7.4,19-14.8,28.4-22.3c9.4-7.4,18-14.7,25.8-21.7c27-24.6,44.3-46.7,51.9-66.2
		c7.6-19.5,5-33.6-7.9-42.2c-7.8-5.1-17.7-6.4-29.6-4.1c-11.9,2.3-25.2,8.6-39.8,18.8c-14.7,10.2-30.3,24.1-46.9,41.9
		c-16.6,17.8-33.7,39.6-51.3,65.4c-25.4,37.1-43,69.7-52.8,97.6c-9.8,27.9-14.2,51.3-13.2,70C703,740.7,708.2,754.9,717.8,764.5z
		 M853.2,526.2c8.8-11.3,16.8-21.1,24-29.3c7.2-8.2,13.5-14.4,18.8-18.5c5.3-4.1,9.1-5.4,11.4-3.8c1.9,2,1,5.7-2.9,11.1
		c-3.9,5.5-9.7,12.2-17.3,20.2c-7.6,8-16.8,16.8-27.5,26.4c-10.8,9.6-22,19.2-33.7,29C835.3,549.3,844.4,537.6,853.2,526.2z"/>
	<path d="M365.6,988.2c20.2-24.4,7.1-36.9-3.7-45.8l-15.1-12.5l-78.4,95l12.6,10.4l34.7-42.1C334.7,1010.2,349.7,1007.4,365.6,988.2
		z M324.5,982.5l26-31.5l1.8,1.5c9.6,7.9,6.2,17.2-0.9,25.7C342.7,988.7,334.7,992.2,324.5,982.5z"/>
	<path d="M411.2,977.7l-85.6,92.5l13.8,8.1l16.1-18.4l21.1,12.4l-8.2,23l14.2,8.4l39.7-119.5L411.2,977.7z M387.2,1043.2l-6.2,17
		l-16.9-9.9l40.2-48.9l0.3,0.2L387.2,1043.2z"/>
	<path d="M476.9,1010.1l-18.4-6.9l-43.1,115.4l15.3,5.7l21.1-56.5l0.3,0.1l-0.3,64.2l15.9,6l-0.3-64.1c13.6,2.5,22.9-12.9,27-23.7
		C505.2,1021.4,488,1014.3,476.9,1010.1z M477,1047.6c-4.3,11.6-11.1,17.5-22.3,12.4l14.2-38.1l2.4,0.9
		C483.1,1026.9,481.1,1036.6,477,1047.6z"/>
	<polygon points="565.1,1033.5 531.8,1087.5 542.4,1029.3 526,1026.3 503.9,1147.5 520.2,1150.5 531.5,1089.1 542.9,1154.6 
		561.4,1158 547.1,1090.8 581.6,1036.5 	"/>
	<path d="M691.7,1064.9c-2.8-30.7-21.4-29.7-33.3-28.6l-19.5,1.8l11.1,122.6l16.3-1.5l-5.4-60l0.3,0l27.6,58l16.9-1.5l-28-57.6
		C691,1094.3,692.8,1076.4,691.7,1064.9z M660.1,1090.9l-3.7-40.5l2.6-0.2c12.3-1.4,14.7,8.2,15.7,19.9
		C675.9,1082.4,672.4,1090.6,660.1,1090.9z"/>
	<rect x="725.3" y="1025.1" transform="matrix(0.9736 -0.2283 0.2283 0.9736 -228.742 196.1868)" width="16.3" height="123.1"/>
	<path d="M768.4,1012l-17,6.8l45.7,114.4l10.5-4.2c27.1-10.8,43.8-20.3,22.7-73.1C807.1,998,786.3,1004.9,768.4,1012z M807.1,1114.2
		l-35.4-88.6c25-11.8,35.4,19.1,42.4,36.7C821.9,1081.8,832.5,1105,807.1,1114.2z"/>
	<path d="M904.8,1004.5l-25.3,16.2l7.7,12l11.5-7.4l3.6,5.6c15.9,24.7,10.2,29.5,4.6,33.2c-6,3.9-14.7,3.6-37.9-32.4
		c-16.1-25-25.1-40.9-13.9-48.2c8.5-5.5,14.8,0,20.6,6l9.6-13.7c-12.4-11.4-24.2-14.4-38.9-4.9c-23.9,15.4-10.5,41.3,8.1,70.3
		c18.8,29.3,36.9,51,61.5,35.2c27.6-17.7,2.5-50.5-10.2-70.3L904.8,1004.5z"/>
	<polygon points="974.2,1012 946,981.1 964.2,964.5 954.6,954 936.4,970.6 910.3,942 930.7,923.4 921.1,912.9 888.7,942.5 
		971.7,1033.5 1004.1,1003.8 994.6,993.4 	"/>
	<path d="M1187.3,391.5c-30.5-72.2-74.2-137-129.9-192.7S936.9,99.5,864.8,68.9C790,37.3,710.6,21.3,628.8,21.3
		c-81.8,0-161.2,16-235.9,47.6c-72.2,30.5-137,74.2-192.7,129.9S100.9,319.3,70.3,391.5c-31.6,74.7-47.6,154.1-47.6,235.9
		s16,161.2,47.6,235.9c30.5,72.2,74.2,137,129.9,192.7c55.7,55.7,120.5,99.4,192.7,129.9c74.7,31.6,154.1,47.6,235.9,47.6
		c81.8,0,161.2-16,235.9-47.6c72.2-30.5,137-74.2,192.7-129.9c55.7-55.7,99.4-120.5,129.9-192.7c31.6-74.7,47.6-154.1,47.6-235.9
		S1218.9,466.2,1187.3,391.5z M1161.4,852.4c-29.1,68.8-70.8,130.6-123.9,183.7c-53.1,53.1-114.9,94.8-183.7,123.9
		c-71.2,30.1-146.9,45.4-225,45.4s-153.7-15.3-225-45.4c-68.8-29.1-130.6-70.8-183.7-123.9C167.1,983,125.4,921.2,96.3,852.4
		c-30.1-71.2-45.4-146.9-45.4-225c0-78,15.3-153.7,45.4-225c29.1-68.8,70.8-130.6,123.9-183.7C273.2,165.7,335,124,403.9,94.9
		c71.2-30.1,146.9-45.4,225-45.4s153.7,15.3,225,45.4c68.8,29.1,130.6,70.8,183.7,123.9c53.1,53.1,94.8,114.9,123.9,183.7
		c30.1,71.2,45.4,146.9,45.4,225C1206.8,705.4,1191.5,781.1,1161.4,852.4z"/>
</g>
</svg>
