<?xml version="1.0" encoding="utf-8"?>
<!-- Generator: Adobe Illustrator 16.0.0, SVG Export Plug-In . SVG Version: 6.00 Build 0)  -->
<!DOCTYPE svg PUBLIC "-//W3C//DTD SVG 1.1//EN" "http://www.w3.org/Graphics/SVG/1.1/DTD/svg11.dtd">
<svg version="1.1" id="Layer_1" xmlns="http://www.w3.org/2000/svg" xmlns:xlink="http://www.w3.org/1999/xlink" x="0px" y="0px" width="40px" height="40px" viewBox="0 0 40 40" enable-background="new 0 0 40 40" xml:space="preserve"><g><path fill="none" stroke="#A4A3A3" stroke-miterlimit="10" d="M39.5,19.998C39.5,30.77,30.771,39.5,19.999,39.5 C9.229,39.5,0.5,30.77,0.5,19.998c0-10.769,8.73-19.5,19.499-19.5C30.771,0.499,39.5,9.229,39.5,19.998z"/><polygon fill="#A4A3A3" points="28.022,19.055 21.97,19.055 21.97,13.002 18.178,13.002 18.178,19.055 12.125,19.055 12.125,22.847 18.178,22.847 18.178,28.899 21.97,28.899 21.97,22.847 28.022,22.847 	"/></g></svg>
