<?xml version="1.0" encoding="utf-8"?>
<!-- Generator: Adobe Illustrator 16.0.0, SVG Export Plug-In . SVG Version: 6.00 Build 0)  -->
<!DOCTYPE svg PUBLIC "-//W3C//DTD SVG 1.1//EN" "http://www.w3.org/Graphics/SVG/1.1/DTD/svg11.dtd">
<svg version="1.1" id="Layer_1" xmlns="http://www.w3.org/2000/svg" xmlns:xlink="http://www.w3.org/1999/xlink" x="0px" y="0px" width="40px" height="40px" viewBox="0 0 40 40" enable-background="new 0 0 40 40" xml:space="preserve"><path fill="#6fcf00" d="M20,0C8.954,0,0,8.954,0,20s8.954,20,20,20c11.045,0,20-8.954,20-20S31.045,0,20,0z M29.987,22.983h-7.995 v7.995h-4.02v-7.995H9.978v-4.02h7.994v-7.995h4.02v7.995h7.995V22.983z"/></svg>
